{"limit":500,"totalCount":26142,"totalPages":53,"nextPage":2,"page":1,"items":[{"_id":"674c9e07d0501f5781b4c372","createdBy":"eBT9qSrxquPVguazo7MwJzzaf2p1","createdAt":"2024-12-01T17:33:59.080Z","updatedBy":"eBT9qSrxquPVguazo7MwJzzaf2p1","updatedAt":"2025-11-03T19:31:00.404Z","name":"22 MITT","dataIngestion":true,"type":21,"icaoClass":8,"activity":0,"onDemand":false,"onRequest":false,"byNotam":false,"specialAgreement":false,"requestCompliance":false,"geometry":{"type":"Polygon","coordinates":[[[16.2575,58.35277777777778],[16.264444444444443,58.23722222222222],[16.574444444444445,58.281666666666666],[16.504166666666666,58.37388888888889],[16.2575,58.35277777777778]]]},"country":"SE","upperLimit":{"value":90,"unit":6,"referenceDatum":2},"lowerLimit":{"value":1600,"unit":1,"referenceDatum":1},"hoursOfOperation":{"operatingHours":[{"dayOfWeek":0,"startTime":"00:00","endTime":"00:00","byNotam":false,"sunrise":false,"sunset":false,"publicHolidaysExcluded":false},{"dayOfWeek":1,"startTime":"00:00","endTime":"00:00","byNotam":false,"sunrise":false,"sunset":false,"publicHolidaysExcluded":false}]}}]}
